args: 0:../../benchmarks/statemate/statemate 1:#-cache:il2 2:none 3:6 4:none 5:none 
sim-outorder: SimpleScalar/PISA Tool Set version 3.0 of November, 2000.
Copyright (c) 1994-2000 by Todd M. Austin.  All Rights Reserved.
This version of SimpleScalar is licensed for academic non-commercial use only.


sim-outorder: This simulator implements a very detailed out-of-order issue
superscalar processor with a two-level memory system and speculative
execution support.  This simulator is a performance simulator, tracking the
latency of all pipeline operations.

# -config                     # load configuration from a file
# -dumpconfig                 # dump configuration to a file
# -h                    false # print help message    
# -v                    false # verbose operation     
# -d                    false # enable debug message  
# -i                    false # start in Dlite debugger
-seed                       1 # random number generator seed (0 for timer seed)
# -q                    false # initialize and terminate immediately
# -chkpt               <null> # restore EIO trace execution from <fname>
# -redir:sim           <null> # redirect simulator output to file (non-interactive only)
# -redir:prog          <null> # redirect simulated program output to file
-nice                       0 # simulator scheduling priority
-max:inst          1000000000 # maximum number of inst's to execute
-fastfwd              1000000 # number of insts skipped before timing starts
-fetch:ifqsize              4 # instruction fetch queue size (in insts)
-fetch:mplat                3 # extra branch mis-prediction latency
-fetch:speed                1 # speed of front-end of machine relative to execution core
-bpred                perfect # branch predictor type {nottaken|taken|perfect|bimod|2lev|comb}
-bpred:bimod     2048 # bimodal predictor config (<table size>)
-bpred:2lev      1 1024 8 0 # 2-level predictor config (<l1size> <l2size> <hist_size> <xor>)
-bpred:comb      1024 # combining predictor config (<meta_table_size>)
-bpred:ras                  8 # return address stack size (0 for no return stack)
-bpred:btb       512 4 # BTB config (<num_sets> <associativity>)
# -bpred:spec_update       <null> # speculative predictors update in {ID|WB} (default non-spec)
-decode:width               1 # instruction decode B/W (insts/cycle)
-issue:width                1 # instruction issue B/W (insts/cycle)
-issue:inorder           true # run pipeline with in-order issue
-issue:wrongpath        false # issue instructions down wrong execution paths
-commit:width               1 # instruction commit B/W (insts/cycle)
-ruu:size                   8 # register update unit (RUU) size
-lsq:size                   8 # load/store queue (LSQ) size
-cache:dl1lat               1 # l1 data cache hit latency (in cycles)
-cache:dl2lat               6 # l2 data cache hit latency (in cycles)
-cache:il1lat               1 # l1 instruction cache hit latency (in cycles)
-cache:il2lat               6 # l2 instruction cache hit latency (in cycles)
-cache:flush            false # flush caches on system calls
-cache:icompress        false # convert 64-bit inst addresses to 32-bit inst equivalents
-mem:lat         30 2 -1 0 0 0 0 0 1 1 2 2 8 1024 512 64 1024 512 2048 128 16384 2048 32768 256 8192 4096 2147467264 -1 0 0 # memory access latency (<first_chunk> <inter_chunk>)
-mem:width                 32 # memory access bus width (in bytes)
-tlb:itlb                none # instruction TLB config, i.e., {<config>|none}
-tlb:dtlb                none # data TLB config, i.e., {<config>|none}
-tlb:lat                   30 # inst/data TLB miss latency (in cycles)
-res:ialu                   1 # total number of integer ALU's available
-res:imult                  1 # total number of integer multiplier/dividers available
-res:memport                2 # total number of memory system ports available (to CPU)
-res:fpalu                  1 # total number of floating point ALU's available
-res:fpmult                 1 # total number of floating point multiplier/dividers available
# -pcstat              <null> # profile stat(s) against text addr's (mult uses ok)
-bugcompat              false # operate in backward-compatible bugs mode (for testing only)
-cache:il1       il1:16:32:2:l # i2 data cache config, i.e., {<config>|none}
-cache:il2       il2:16:32:4:l # l2 data cache config, i.e., {<config>|none}
-cache:dl1               none # dl1 data cache config, i.e., {<config>|none}
-cache:dl2               none # dl2 data cache config, i.e., {<config>|none}

  Pipetrace range arguments are formatted as follows:

    {{@|#}<start>}:{{@|#|+}<end>}

  Both ends of the range are optional, if neither are specified, the entire
  execution is traced.  Ranges that start with a `@' designate an address
  range to be traced, those that start with an `#' designate a cycle count
  range.  All other range values represent an instruction count range.  The
  second argument, if specified with a `+', indicates a value relative
  to the first argument, e.g., 1000:+100 == 1000:1100.  Program symbols may
  be used in all contexts.

    Examples:   -ptrace FOO.trc #0:#1000
                -ptrace BAR.trc @2000:
                -ptrace BLAH.trc :1500
                -ptrace UXXE.trc :
                -ptrace FOOBAR.trc @main:+278

  Branch predictor configuration examples for 2-level predictor:
    Configurations:   N, M, W, X
      N   # entries in first level (# of shift register(s))
      W   width of shift register(s)
      M   # entries in 2nd level (# of counters, or other FSM)
      X   (yes-1/no-0) xor history and address for 2nd level index
    Sample predictors:
      GAg     : 1, W, 2^W, 0
      GAp     : 1, W, M (M > 2^W), 0
      PAg     : N, W, 2^W, 0
      PAp     : N, W, M (M == 2^(N+W)), 0
      gshare  : 1, W, 2^W, 1
  Predictor `comb' combines a bimodal and a 2-level predictor.

  The cache config parameter <config> has the following format:

    <name>:<nsets>:<bsize>:<assoc>:<repl>

    <name>   - name of the cache being defined
    <nsets>  - number of sets in the cache
    <bsize>  - block size of the cache
    <assoc>  - associativity of the cache
    <repl>   - block replacement strategy, 'l'-LRU, 'f'-FIFO, 'r'-random

    Examples:   -cache:dl1 dl1:4096:32:1:l
                -dtlb dtlb:128:4096:32:r

  Cache levels can be unified by pointing a level of the instruction cache
  hierarchy at the data cache hiearchy using the "dl1" and "dl2" cache
  configuration arguments.  Most sensible combinations are supported, e.g.,

    A unified l2 cache (il2 is pointed at dl2):
      -cache:il1 il1:128:64:1:l -cache:il2 dl2
      -cache:dl1 dl1:256:32:1:l -cache:dl2 ul2:1024:64:2:l

    Or, a fully unified cache hierarchy (il1 pointed at dl1):
      -cache:il1 dl1
      -cache:dl1 ul1:256:32:1:l -cache:dl2 ul2:1024:64:2:l



sim: ** simulation statistics of ../../benchmarks/statemate/statemate **
sim_num_insn                   6802 # total number of instructions committed
sim_num_refs                   4110 # total number of loads and stores committed
sim_num_loads                   521 # total number of loads committed
sim_num_stores            3589.0000 # total number of stores committed
sim_num_branches                815 # total number of branches committed
sim_elapsed_time                  1 # total simulation time in seconds
sim_inst_rate             6802.0000 # simulation speed (in insts/sec)
sim_total_insn                 6801 # total number of instructions executed
sim_total_refs                 4110 # total number of loads and stores executed
sim_total_loads                 521 # total number of loads executed
sim_total_stores          3589.0000 # total number of stores executed
sim_total_branches              815 # total number of branches executed
sim_cycle                     26023 # total simulation time in cycles
sim_IPC                      0.2614 # instructions per cycle
sim_CPI                      3.8258 # cycles per instruction
sim_exec_BW                  0.2613 # total instructions (mis-spec + committed) per cycle
sim_IPB                      8.3460 # instruction per branch
IFQ_count                     30315 # cumulative IFQ occupancy
IFQ_fcount                     5417 # cumulative IFQ full count
ifq_occupancy                1.1649 # avg IFQ occupancy (insn's)
ifq_rate                     0.2613 # avg IFQ dispatch rate (insn/cycle)
ifq_latency                  4.4574 # avg IFQ occupant latency (cycle's)
ifq_full                     0.2082 # fraction of time (cycle's) IFQ was full
RUU_count                     20915 # cumulative RUU occupancy
RUU_fcount                        0 # cumulative RUU full count
ruu_occupancy                0.8037 # avg RUU occupancy (insn's)
ruu_rate                     0.2613 # avg RUU dispatch rate (insn/cycle)
ruu_latency                  3.0753 # avg RUU occupant latency (cycle's)
ruu_full                     0.0000 # fraction of time (cycle's) RUU was full
LSQ_count                     12851 # cumulative LSQ occupancy
LSQ_fcount                        0 # cumulative LSQ full count
lsq_occupancy                0.4938 # avg LSQ occupancy (insn's)
lsq_rate                     0.2613 # avg LSQ dispatch rate (insn/cycle)
lsq_latency                  1.8896 # avg LSQ occupant latency (cycle's)
lsq_full                     0.0000 # fraction of time (cycle's) LSQ was full
sim_slip                      44674 # total number of slip cycles
avg_sim_slip                 6.5678 # the average slip between issue and retirement
il1.accesses                   8669 # total number of accesses
il1.hits                       8057 # total number of hits
il1.misses                      612 # total number of misses
il1.replacements                580 # total number of replacements
il1.writebacks                    0 # total number of writebacks
il1.invalidations                 0 # total number of invalidations
il1.miss_rate                0.0706 # miss rate (i.e., misses/ref)
il1.repl_rate                0.0669 # replacement rate (i.e., repls/ref)
il1.wb_rate                  0.0000 # writeback rate (i.e., wrbks/ref)
il1.inv_rate                 0.0000 # invalidation rate (i.e., invs/ref)
il2.accesses                    612 # total number of accesses
il2.hits                         53 # total number of hits
il2.misses                      559 # total number of misses
il2.replacements                495 # total number of replacements
il2.writebacks                    0 # total number of writebacks
il2.invalidations                 0 # total number of invalidations
il2.miss_rate                0.9134 # miss rate (i.e., misses/ref)
il2.repl_rate                0.8088 # replacement rate (i.e., repls/ref)
il2.wb_rate                  0.0000 # writeback rate (i.e., wrbks/ref)
il2.inv_rate                 0.0000 # invalidation rate (i.e., invs/ref)
shared_bus_delay                  0 # Total shared bus delay suffered
sim_invalid_addrs                 0 # total non-speculative bogus addresses seen (debug var)
ld_text_base             0x00400000 # program text (code) segment base
ld_text_size                  28032 # program text (code) size in bytes
ld_data_base             0x10000000 # program initialized data segment base
ld_data_size                  17248 # program init'ed `.data' and uninit'ed `.bss' size in bytes
ld_stack_base            0x7fffc000 # program stack segment base (highest address in stack)
ld_stack_size                 16384 # program initial stack size
ld_prog_entry            0x00400140 # program entry point (initial PC)
ld_environ_base          0x7fff8000 # program environment base address address
ld_target_big_endian              0 # target executable endian-ness, non-zero if big endian
mem_0.page_count                 14 # total number of pages allocated
mem_0.page_mem                  56k # total size of memory pages allocated
mem_0.ptab_misses                14 # total first level page table misses
mem_0.ptab_accesses          261832 # total page table accesses
mem_0.ptab_miss_rate         0.0001 # first level page table miss rate

